Program
  List
    Production
      List
        SimpleOption
          List
            NonTerminal
        SimpleOption
          List
            NonTerminal
        SimpleOption
          List
            NonTerminal
    Production
      List
        SimpleOption
          List
            NonTerminal
        SimpleOption
          List
            NonTerminal
    Production
      List
        SimpleOption
          List
            NonTerminal
            NonTerminal
            NonTerminal
    Production
      List
        SimpleOption
          List
            NonTerminal
        SimpleOption
          List
            NonTerminal
    Production
      List
        SimpleOption
          List
            NonTerminal
        SimpleOption
          List
            NonTerminal
        SimpleOption
          List
            NonTerminal
        SimpleOption
          List
            NonTerminal
        SimpleOption
          List
            NonTerminal
    Production
      List
        SimpleOption
          List
            NonTerminal
            NonTerminal
            NonTerminal
            NonTerminal
    Production
      List
        SimpleOption
          List
            NonTerminal
            NonTerminal
            NonTerminal
            NonTerminal
