Program
  List
    Production
      List
        ComplexOption
          List
            RefTNT
              NonTerminal
            NonTerminal
          List
            NewlineSuite
              List
                NonTerminal
