Program
  List
    Production
      List
        SimpleOption
          List
            NonTerminal
        SimpleOption
          List
            NonTerminal
        SimpleOption
          List
            NonTerminal
