Program
  List
    Production
      List
        ComplexOption
          List
            RefTNT
              NonTerminal
          List
            EQSuite
              List
                NonTerminal
            EQSuite
              List
                NonTerminal
